^C:\USERS\STEPHANOO\DOCUMENTS\ED2\PROYECTOED2\PROYECTOED2\CELDA.CPP|C:\USERS\STEPHANOO\DOCUMENTS\ED2\PROYECTOED2\PROYECTOED2\JUGADOR.CPP|C:\USERS\STEPHANOO\DOCUMENTS\ED2\PROYECTOED2\PROYECTOED2\PARTIDA.CPP|C:\USERS\STEPHANOO\DOCUMENTS\ED2\PROYECTOED2\PROYECTOED2\PIEZA.CPP|C:\USERS\STEPHANOO\DOCUMENTS\ED2\PROYECTOED2\PROYECTOED2\PROYECTOED2.CPP|C:\USERS\STEPHANOO\DOCUMENTS\ED2\PROYECTOED2\PROYECTOED2\STDAFX.CPP|C:\USERS\STEPHANOO\DOCUMENTS\ED2\PROYECTOED2\PROYECTOED2\TABLERO.CPP
C:\USERS\STEPHANOO\DOCUMENTS\ED2\PROYECTOED2\PROYECTOED2\DEBUG\VC120.PDB
C:\USERS\STEPHANOO\DOCUMENTS\ED2\PROYECTOED2\PROYECTOED2\DEBUG\VC120.IDB
C:\USERS\STEPHANOO\DOCUMENTS\ED2\PROYECTOED2\PROYECTOED2\DEBUG\CELDA.OBJ
C:\USERS\STEPHANOO\DOCUMENTS\ED2\PROYECTOED2\PROYECTOED2\DEBUG\JUGADOR.OBJ
C:\USERS\STEPHANOO\DOCUMENTS\ED2\PROYECTOED2\PROYECTOED2\DEBUG\PARTIDA.OBJ
C:\USERS\STEPHANOO\DOCUMENTS\ED2\PROYECTOED2\PROYECTOED2\DEBUG\PIEZA.OBJ
C:\USERS\STEPHANOO\DOCUMENTS\ED2\PROYECTOED2\PROYECTOED2\DEBUG\PROYECTOED2.OBJ
C:\USERS\STEPHANOO\DOCUMENTS\ED2\PROYECTOED2\PROYECTOED2\DEBUG\STDAFX.OBJ
C:\USERS\STEPHANOO\DOCUMENTS\ED2\PROYECTOED2\PROYECTOED2\DEBUG\TABLERO.OBJ
^C:\USERS\STEPHANOO\DOCUMENTS\ED2\PROYECTOED2\PROYECTOED2\CELDA.CPP
C:\USERS\STEPHANOO\DOCUMENTS\ED2\PROYECTOED2\PROYECTOED2\DEBUG\VC120.PDB
^C:\USERS\STEPHANOO\DOCUMENTS\ED2\PROYECTOED2\PROYECTOED2\JUGADOR.CPP
C:\USERS\STEPHANOO\DOCUMENTS\ED2\PROYECTOED2\PROYECTOED2\DEBUG\VC120.PDB
^C:\USERS\STEPHANOO\DOCUMENTS\ED2\PROYECTOED2\PROYECTOED2\PARTIDA.CPP
C:\USERS\STEPHANOO\DOCUMENTS\ED2\PROYECTOED2\PROYECTOED2\DEBUG\VC120.PDB
^C:\USERS\STEPHANOO\DOCUMENTS\ED2\PROYECTOED2\PROYECTOED2\PIEZA.CPP
C:\USERS\STEPHANOO\DOCUMENTS\ED2\PROYECTOED2\PROYECTOED2\DEBUG\VC120.PDB
^C:\USERS\STEPHANOO\DOCUMENTS\ED2\PROYECTOED2\PROYECTOED2\PROYECTOED2.CPP
C:\USERS\STEPHANOO\DOCUMENTS\ED2\PROYECTOED2\PROYECTOED2\DEBUG\VC120.PDB
C:\USERS\STEPHANOO\DOCUMENTS\ED2\PROYECTOED2\PROYECTOED2\DEBUG\VC120.IDB
C:\USERS\STEPHANOO\DOCUMENTS\ED2\PROYECTOED2\PROYECTOED2\DEBUG\PROYECTOED2.OBJ
^C:\USERS\STEPHANOO\DOCUMENTS\ED2\PROYECTOED2\PROYECTOED2\STDAFX.CPP
C:\USERS\STEPHANOO\DOCUMENTS\ED2\PROYECTOED2\PROYECTOED2\DEBUG\VC120.PDB
^C:\USERS\STEPHANOO\DOCUMENTS\ED2\PROYECTOED2\PROYECTOED2\TABLERO.CPP
C:\USERS\STEPHANOO\DOCUMENTS\ED2\PROYECTOED2\PROYECTOED2\DEBUG\VC120.PDB
^C:\USERS\STEPHANOO\DOCUMENTS\ED2\PROYECTOED2\PROYECTOED2\PARTIDA.CPP|C:\USERS\STEPHANOO\DOCUMENTS\ED2\PROYECTOED2\PROYECTOED2\PROYECTOED2.CPP
C:\USERS\STEPHANOO\DOCUMENTS\ED2\PROYECTOED2\PROYECTOED2\DEBUG\VC120.PDB
C:\USERS\STEPHANOO\DOCUMENTS\ED2\PROYECTOED2\PROYECTOED2\DEBUG\VC120.IDB
C:\USERS\STEPHANOO\DOCUMENTS\ED2\PROYECTOED2\PROYECTOED2\DEBUG\PARTIDA.OBJ
C:\USERS\STEPHANOO\DOCUMENTS\ED2\PROYECTOED2\PROYECTOED2\DEBUG\PROYECTOED2.OBJ
^C:\USERS\STEPHANOO\DOCUMENTS\ED2\PROYECTOED2\PROYECTOED2\PARTIDA.CPP|C:\USERS\STEPHANOO\DOCUMENTS\ED2\PROYECTOED2\PROYECTOED2\PIEZA.CPP|C:\USERS\STEPHANOO\DOCUMENTS\ED2\PROYECTOED2\PROYECTOED2\PROYECTOED2.CPP|C:\USERS\STEPHANOO\DOCUMENTS\ED2\PROYECTOED2\PROYECTOED2\TABLERO.CPP
C:\USERS\STEPHANOO\DOCUMENTS\ED2\PROYECTOED2\PROYECTOED2\DEBUG\VC120.PDB
C:\USERS\STEPHANOO\DOCUMENTS\ED2\PROYECTOED2\PROYECTOED2\DEBUG\VC120.IDB
C:\USERS\STEPHANOO\DOCUMENTS\ED2\PROYECTOED2\PROYECTOED2\DEBUG\PIEZA.OBJ
C:\USERS\STEPHANOO\DOCUMENTS\ED2\PROYECTOED2\PROYECTOED2\DEBUG\PROYECTOED2.OBJ
C:\USERS\STEPHANOO\DOCUMENTS\ED2\PROYECTOED2\PROYECTOED2\DEBUG\TABLERO.OBJ
